{
  "version": 8,
  "id": "cortext-base-background",
  "name": "Cortext base background",
  "metadata": {
    "openmaptiles:version": "3.x",
    "maputnik:renderer": "mlgljs"
  },
  "sources": {
    "openmaptiles": {
      "type": "vector",
      "url": "mbtiles://{planet}"
    }
  },
  "sprite": "cortext-base-background/sprite",
  "glyphs": "{fontstack}/{range}.pbf",
  "layers": [
    {
      "id": "background",
      "type": "background",
      "layout": {"visibility": "visible"},
      "paint": {"background-color": "#f8f4f0"}
    },
    {
      "id": "park",
      "type": "fill",
      "source": "openmaptiles",
      "source-layer": "park",
      "filter": ["==", "$type", "Polygon"],
      "layout": {"visibility": "none"},
      "paint": {"fill-color": "rgb(230, 233, 229)"}
    },
    {
      "id": "water",
      "type": "fill",
      "source": "openmaptiles",
      "source-layer": "water",
      "filter": ["all", ["==", "$type", "Polygon"]],
      "layout": {"visibility": "visible"},
      "paint": {
        "fill-antialias": true,
        "fill-color": "hsl(210, 67%, 85%)",
        "fill-opacity": 1
      }
    },
    {
      "id": "boundary_county",
      "type": "line",
      "source": "openmaptiles",
      "source-layer": "boundary",
      "filter": [
        "all",
        [">=", "admin_level", 6],
        ["<=", "admin_level", 8],
        ["!=", "maritime", 1]
      ],
      "layout": {"line-join": "round", "visibility": "visible"},
      "paint": {
        "line-color": "rgba(175, 117, 117, 1)",
        "line-dasharray": [3, 1, 1, 1],
        "line-width": {"base": 1.4, "stops": [[4, 0.4], [5, 1], [12, 3]]},
        "line-opacity": 0.5
      }
    },
    {
      "id": "boundary_state",
      "type": "line",
      "source": "openmaptiles",
      "source-layer": "boundary",
      "minzoom": 3,
      "filter": [
        "all",
        [">=", "admin_level", 3],
        ["<=", "admin_level", 5],
        ["!=", "maritime", 1]
      ],
      "layout": {"line-join": "round", "visibility": "visible"},
      "paint": {
        "line-color": "#9e9cab",
        "line-width": {"base": 1.4, "stops": [[4, 0.4], [5, 1], [12, 3]]},
        "line-opacity": 0.6
      }
    },
    {
      "id": "boundary_country",
      "type": "line",
      "source": "openmaptiles",
      "source-layer": "boundary",
      "filter": [
        "all",
        ["==", "admin_level", 2],
        ["!=", "maritime", 1],
        ["!=", "disputed", 1]
      ],
      "layout": {
        "line-cap": "round",
        "line-join": "round",
        "visibility": "visible"
      },
      "paint": {
        "line-color": "rgba(185, 183, 197, 1)",
        "line-width": {
          "base": 1,
          "stops": [[0, 0.6], [4, 1.2], [5, 1.8], [12, 6]]
        }
      }
    },
    {
      "id": "place_other",
      "type": "symbol",
      "source": "openmaptiles",
      "source-layer": "place",
      "maxzoom": 14,
      "filter": [
        "all",
        [
          "in",
          "class",
          "continent",
          "hamlet",
          "neighbourhood",
          "isolated_dwelling"
        ],
        ["==", "$type", "Point"]
      ],
      "layout": {
        "text-size": 10,
        "text-transform": "uppercase",
        "text-font": ["Metropolis Regular", "Open Sans Regular"],
        "text-justify": "center",
        "visibility": "visible",
        "text-offset": [0.5, 0],
        "text-anchor": "center",
        "text-field": "{name:latin}\n{name:nonlatin}"
      },
      "paint": {
        "text-color": "rgb(117, 129, 145)",
        "text-halo-color": "rgb(242,243,240)",
        "text-halo-width": 1,
        "text-halo-blur": 1
      }
    },
    {
      "id": "place_suburb",
      "type": "symbol",
      "source": "openmaptiles",
      "source-layer": "place",
      "maxzoom": 15,
      "filter": ["all", ["==", "$type", "Point"], ["==", "class", "suburb"]],
      "layout": {
        "text-size": 10,
        "text-transform": "uppercase",
        "text-font": ["Metropolis Regular", "Open Sans Regular"],
        "text-justify": "center",
        "visibility": "visible",
        "text-offset": [0.5, 0],
        "text-anchor": "center",
        "text-field": "{name:latin}\n{name:nonlatin}"
      },
      "paint": {
        "text-color": "rgb(117, 129, 145)",
        "text-halo-color": "rgb(242,243,240)",
        "text-halo-width": 1,
        "text-halo-blur": 1
      }
    },
    {
      "id": "place_village",
      "type": "symbol",
      "source": "openmaptiles",
      "source-layer": "place",
      "maxzoom": 14,
      "filter": ["all", ["==", "$type", "Point"], ["==", "class", "village"]],
      "layout": {
        "text-size": 10,
        "text-transform": "uppercase",
        "text-font": ["Metropolis Regular", "Open Sans Regular"],
        "text-justify": "left",
        "visibility": "visible",
        "text-offset": [0.5, 0.2],
        "icon-size": 0.4,
        "text-anchor": "left",
        "text-field": "{name:latin}\n{name:nonlatin}"
      },
      "paint": {
        "text-color": "rgb(117, 129, 145)",
        "text-halo-color": "rgb(242,243,240)",
        "text-halo-width": 1,
        "text-halo-blur": 1,
        "icon-opacity": 0.7
      }
    },
    {
      "id": "place_town",
      "type": "symbol",
      "source": "openmaptiles",
      "source-layer": "place",
      "maxzoom": 15,
      "filter": ["all", ["==", "$type", "Point"], ["==", "class", "town"]],
      "layout": {
        "text-size": 10,
        "icon-image": {"base": 1, "stops": [[0, "circle-11"], [8, ""]]},
        "text-transform": "uppercase",
        "text-font": ["Metropolis Regular", "Open Sans Regular"],
        "text-justify": "left",
        "visibility": "visible",
        "text-offset": [0.5, 0.2],
        "icon-size": 0.4,
        "text-anchor": {"base": 1, "stops": [[0, "left"], [8, "center"]]},
        "text-field": "{name:latin}\n{name:nonlatin}"
      },
      "paint": {
        "text-color": "rgb(117, 129, 145)",
        "text-halo-color": "rgb(242,243,240)",
        "text-halo-width": 1,
        "text-halo-blur": 1,
        "icon-opacity": 0.7
      }
    },
    {
      "id": "place_city",
      "type": "symbol",
      "source": "openmaptiles",
      "source-layer": "place",
      "maxzoom": 14,
      "filter": [
        "all",
        ["==", "$type", "Point"],
        ["all", ["!=", "capital", 2], ["==", "class", "city"], [">", "rank", 3]]
      ],
      "layout": {
        "text-size": {"stops": [[7, 14], [11, 24]], "base": 1.2},
        "icon-image": {"base": 1, "stops": [[0, "circle-11"], [8, ""]]},
        "text-transform": "none",
        "text-font": ["Open Sans Regular"],
        "text-justify": "left",
        "visibility": "visible",
        "text-offset": [0.5, 0.2],
        "icon-size": 0.4,
        "text-anchor": {"base": 1, "stops": [[0, "left"], [8, "center"]]},
        "text-field": "{name:latin}\n{name:nonlatin}"
      },
      "paint": {
        "text-color": "#333",
        "text-halo-color": "rgba(255,255,255,0.8)",
        "text-halo-width": 1.2,
        "icon-opacity": 0.7,
        "text-halo-blur": 0
      }
    },
    {
      "id": "place_capital",
      "type": "symbol",
      "source": "openmaptiles",
      "source-layer": "place",
      "maxzoom": 12,
      "filter": [
        "all",
        ["==", "$type", "Point"],
        ["all", ["==", "capital", 2], ["==", "class", "city"]]
      ],
      "layout": {
        "text-size": {"stops": [[7, 16], [11, 24]], "base": 1.2},
        "icon-image": {"base": 1, "stops": [[0, "star-11"], [8, ""]]},
        "text-transform": "none",
        "text-font": ["Metropolis Regular", "Open Sans Regular"],
        "text-justify": "left",
        "visibility": "visible",
        "text-offset": [0.5, 0.2],
        "icon-size": 1,
        "text-anchor": {"base": 1, "stops": [[0, "left"], [8, "center"]]},
        "text-field": "{name:latin}\n{name:nonlatin}"
      },
      "paint": {
        "text-color": "#333",
        "text-halo-color": "rgba(255,255,255,0.8)",
        "text-halo-width": 1.2,
        "icon-opacity": 0.7,
        "text-halo-blur": 0
      }
    },
    {
      "id": "place_city_large",
      "type": "symbol",
      "source": "openmaptiles",
      "source-layer": "place",
      "maxzoom": 12,
      "filter": [
        "all",
        ["==", "$type", "Point"],
        [
          "all",
          ["!=", "capital", 2],
          ["<=", "rank", 3],
          ["==", "class", "city"]
        ]
      ],
      "layout": {
        "text-size": {"stops": [[7, 15], [11, 24]]},
        "icon-image": {"base": 1, "stops": [[0, "circle-11"], [8, ""]]},
        "text-transform": "none",
        "text-font": ["Metropolis Regular", "Open Sans Regular"],
        "text-justify": "left",
        "visibility": "visible",
        "text-offset": [0.5, 0.2],
        "icon-size": 0.4,
        "text-anchor": {"base": 1, "stops": [[0, "left"], [8, "center"]]},
        "text-field": "{name:latin}\n{name:nonlatin}"
      },
      "paint": {
        "text-color": "#333",
        "text-halo-color": "rgba(255,255,255,0.8)",
        "text-halo-width": 1.2,
        "icon-opacity": 0.7,
        "text-halo-blur": 0
      }
    },
    {
      "id": "place_state",
      "type": "symbol",
      "source": "openmaptiles",
      "source-layer": "place",
      "maxzoom": 12,
      "filter": ["all", ["==", "$type", "Point"], ["==", "class", "state"]],
      "layout": {
        "visibility": "visible",
        "text-field": "{name:latin}\n{name:nonlatin}",
        "text-font": ["Open Sans Bold", "Open Sans Regular"],
        "text-transform": "uppercase",
        "text-size": 10
      },
      "paint": {
        "text-color": "rgba(65, 33, 33, 1)",
        "text-halo-color": "rgba(255,255,255,0.8)",
        "text-halo-width": 1.2,
        "text-halo-blur": 1
      }
    },
    {
      "id": "place_country_other",
      "type": "symbol",
      "source": "openmaptiles",
      "source-layer": "place",
      "maxzoom": 8,
      "filter": [
        "all",
        ["==", "$type", "Point"],
        ["==", "class", "country"],
        ["!has", "iso_a2"]
      ],
      "layout": {
        "visibility": "visible",
        "text-field": "{name:latin}",
        "text-font": ["Metropolis Light Italic", "Open Sans Italic"],
        "text-transform": "uppercase",
        "text-size": {"base": 1, "stops": [[0, 9], [6, 11]]}
      },
      "paint": {
        "text-halo-width": 2,
        "text-halo-color": "rgba(255,255,255,0.8)",
        "text-color": "rgba(87, 87, 115, 1)",
        "text-halo-blur": 1
      }
    },
    {
      "id": "place_country_minor",
      "type": "symbol",
      "source": "openmaptiles",
      "source-layer": "place",
      "maxzoom": 8,
      "filter": [
        "all",
        ["==", "$type", "Point"],
        ["==", "class", "country"],
        [">=", "rank", 2],
        ["has", "iso_a2"]
      ],
      "layout": {
        "visibility": "visible",
        "text-field": "{name:latin}",
        "text-font": ["Open Sans Bold", "Open Sans Regular"],
        "text-transform": "uppercase",
        "text-size": {"base": 1, "stops": [[2, 11], [5, 17]]}
      },
      "paint": {
        "text-halo-color": "rgba(255,255,255,0.8)",
        "text-color": "rgba(87, 87, 115, 1)",
        "text-halo-width": 2,
        "text-halo-blur": 1
      }
    },
    {
      "id": "place_country_major",
      "type": "symbol",
      "source": "openmaptiles",
      "source-layer": "place",
      "maxzoom": 6,
      "filter": [
        "all",
        ["==", "$type", "Point"],
        ["<=", "rank", 1],
        ["==", "class", "country"],
        ["has", "iso_a2"]
      ],
      "layout": {
        "visibility": "visible",
        "text-field": "{name:latin}",
        "text-font": ["Open Sans Bold", "Open Sans Regular"],
        "text-transform": "uppercase",
        "text-size": {"base": 1.4, "stops": [[1, 11], [4, 17]]},
        "text-anchor": "center"
      },
      "paint": {
        "text-halo-width": 2,
        "text-halo-color": "rgba(255,255,255,0.8)",
        "text-color": "rgba(87, 87, 115, 1)",
        "text-halo-blur": 1
      }
    }
  ]
}